/media/hirushan/82E8EA21E8EA12E9/Users/Asus/Downloads/Compressed/MT7630E-release/btloader/mt76xx.ko
/media/hirushan/82E8EA21E8EA12E9/Users/Asus/Downloads/Compressed/MT7630E-release/btloader/mt76xx.o

