/media/hirushan/82E8EA21E8EA12E9/Users/Asus/Downloads/Compressed/MT7630E-release/rt2x00/mt7630e.ko
/media/hirushan/82E8EA21E8EA12E9/Users/Asus/Downloads/Compressed/MT7630E-release/rt2x00/rt2x00dev.o /media/hirushan/82E8EA21E8EA12E9/Users/Asus/Downloads/Compressed/MT7630E-release/rt2x00/rt2x00mac.o /media/hirushan/82E8EA21E8EA12E9/Users/Asus/Downloads/Compressed/MT7630E-release/rt2x00/rt2x00config.o /media/hirushan/82E8EA21E8EA12E9/Users/Asus/Downloads/Compressed/MT7630E-release/rt2x00/rt2x00queue.o /media/hirushan/82E8EA21E8EA12E9/Users/Asus/Downloads/Compressed/MT7630E-release/rt2x00/rt2x00link.o /media/hirushan/82E8EA21E8EA12E9/Users/Asus/Downloads/Compressed/MT7630E-release/rt2x00/mt_linux.o /media/hirushan/82E8EA21E8EA12E9/Users/Asus/Downloads/Compressed/MT7630E-release/rt2x00/rt2x00crypto.o /media/hirushan/82E8EA21E8EA12E9/Users/Asus/Downloads/Compressed/MT7630E-release/rt2x00/rt2x00firmware.o /media/hirushan/82E8EA21E8EA12E9/Users/Asus/Downloads/Compressed/MT7630E-release/rt2x00/rt2x00leds.o /media/hirushan/82E8EA21E8EA12E9/Users/Asus/Downloads/Compressed/MT7630E-release/rt2x00/rt2x00mmio.o /media/hirushan/82E8EA21E8EA12E9/Users/Asus/Downloads/Compressed/MT7630E-release/rt2x00/rt2800pci.o /media/hirushan/82E8EA21E8EA12E9/Users/Asus/Downloads/Compressed/MT7630E-release/rt2x00/rt2800lib.o /media/hirushan/82E8EA21E8EA12E9/Users/Asus/Downloads/Compressed/MT7630E-release/rt2x00/rt2x00pci.o

